Aula 3: Manipulação de dados no dplyr
…
df |>
  group_by(y, z) |>
  summarize(mean_x = mean(x))

df |>
  group_by(y, z) |>
  mutate(mean_x = mean(x))

Mostrar/ocultar código

dados |> 
  select(year, month, day)

# A tibble: 336,776 × 3
    year month   day
   <int> <int> <int>
 1  2013     1     1
 2  2013     1     1
 3  2013     1     1
 4  2013     1     1
 5  2013     1     1
 6  2013     1     1
 7  2013     1     1
 8  2013     1     1
 9  2013     1     1
10  2013     1     1
# ℹ 336,766 more rows

Mostrar/ocultar código

dados |> 
  select(year:day)

# A tibble: 336,776 × 3
    year month   day
   <int> <int> <int>
 1  2013     1     1
 2  2013     1     1
 3  2013     1     1
 4  2013     1     1
 5  2013     1     1
 6  2013     1     1
 7  2013     1     1
 8  2013     1     1
 9  2013     1     1
10  2013     1     1
# ℹ 336,766 more rows

Mostrar/ocultar código

dados |> 
  select(year:dep_delay)

# A tibble: 336,776 × 6
    year month   day dep_time sched_dep_time dep_delay
   <int> <int> <int>    <int>          <int>     <dbl>
 1  2013     1     1      517            515         2
 2  2013     1     1      533            529         4
 3  2013     1     1      542            540         2
 4  2013     1     1      544            545        -1
 5  2013     1     1      554            600        -6
 6  2013     1     1      554            558        -4
 7  2013     1     1      555            600        -5
 8  2013     1     1      557            600        -3
 9  2013     1     1      557            600        -3
10  2013     1     1      558            600        -2
# ℹ 336,766 more rows

Mostrar/ocultar código

dados |> 
  select(!year:day)

# A tibble: 336,776 × 16
   dep_time sched_dep_time dep_delay arr_time sched_arr_time arr_delay carrier
      <int>          <int>     <dbl>    <int>          <int>     <dbl> <chr>  
 1      517            515         2      830            819        11 UA     
 2      533            529         4      850            830        20 UA     
 3      542            540         2      923            850        33 AA     
 4      544            545        -1     1004           1022       -18 B6     
 5      554            600        -6      812            837       -25 DL     
 6      554            558        -4      740            728        12 UA     
 7      555            600        -5      913            854        19 B6     
 8      557            600        -3      709            723       -14 EV     
 9      557            600        -3      838            846        -8 B6     
10      558            600        -2      753            745         8 AA     
# ℹ 336,766 more rows
# ℹ 9 more variables: flight <int>, tailnum <chr>, origin <chr>, dest <chr>,
#   air_time <dbl>, distance <dbl>, hour <dbl>, minute <dbl>, time_hour <dttm>

Mostrar/ocultar código

dados |> 
  select(-year)

# A tibble: 336,776 × 18
   month   day dep_time sched_dep_time dep_delay arr_time sched_arr_time
   <int> <int>    <int>          <int>     <dbl>    <int>          <int>
 1     1     1      517            515         2      830            819
 2     1     1      533            529         4      850            830
 3     1     1      542            540         2      923            850
 4     1     1      544            545        -1     1004           1022
 5     1     1      554            600        -6      812            837
 6     1     1      554            558        -4      740            728
 7     1     1      555            600        -5      913            854
 8     1     1      557            600        -3      709            723
 9     1     1      557            600        -3      838            846
10     1     1      558            600        -2      753            745
# ℹ 336,766 more rows
# ℹ 11 more variables: arr_delay <dbl>, carrier <chr>, flight <int>,
#   tailnum <chr>, origin <chr>, dest <chr>, air_time <dbl>, distance <dbl>,
#   hour <dbl>, minute <dbl>, time_hour <dttm>

Seleciona somente variaveis categoricas

Mostrar/ocultar código

dados |> 
  select(where(is.character))

# A tibble: 336,776 × 4
   carrier tailnum origin dest 
   <chr>   <chr>   <chr>  <chr>
 1 UA      N14228  EWR    IAH  
 2 UA      N24211  LGA    IAH  
 3 AA      N619AA  JFK    MIA  
 4 B6      N804JB  JFK    BQN  
 5 DL      N668DN  LGA    ATL  
 6 UA      N39463  EWR    ORD  
 7 B6      N516JB  EWR    FLL  
 8 EV      N829AS  LGA    IAD  
 9 B6      N593JB  JFK    MCO  
10 AA      N3ALAA  LGA    ORD  
# ℹ 336,766 more rows

Seleciona somente variaveis numericas

Mostrar/ocultar código

dados |> 
  select(where(is.numeric))

# A tibble: 336,776 × 14
    year month   day dep_time sched_dep_time dep_delay arr_time sched_arr_time
   <int> <int> <int>    <int>          <int>     <dbl>    <int>          <int>
 1  2013     1     1      517            515         2      830            819
 2  2013     1     1      533            529         4      850            830
 3  2013     1     1      542            540         2      923            850
 4  2013     1     1      544            545        -1     1004           1022
 5  2013     1     1      554            600        -6      812            837
 6  2013     1     1      554            558        -4      740            728
 7  2013     1     1      555            600        -5      913            854
 8  2013     1     1      557            600        -3      709            723
 9  2013     1     1      557            600        -3      838            846
10  2013     1     1      558            600        -2      753            745
# ℹ 336,766 more rows
# ℹ 6 more variables: arr_delay <dbl>, flight <int>, air_time <dbl>,
#   distance <dbl>, hour <dbl>, minute <dbl>

Time colunas

Mostrar/ocultar código

dados |> 
  select(ends_with("time"))

# A tibble: 336,776 × 5
   dep_time sched_dep_time arr_time sched_arr_time air_time
      <int>          <int>    <int>          <int>    <dbl>
 1      517            515      830            819      227
 2      533            529      850            830      227
 3      542            540      923            850      160
 4      544            545     1004           1022      183
 5      554            600      812            837      116
 6      554            558      740            728      150
 7      555            600      913            854      158
 8      557            600      709            723       53
 9      557            600      838            846      140
10      558            600      753            745      138
# ℹ 336,766 more rows

Criando um novo exemplo

Mostrar/ocultar código

df2 <- dados |> 
  mutate(year_1 = year, year_2 = year + 1, year_3 = year + 2)
#View(df2)

Mostrar/ocultar código

df2 |>
  select(num_range("year_", 1:3))

# A tibble: 336,776 × 3
   year_1 year_2 year_3
    <int>  <dbl>  <dbl>
 1   2013   2014   2015
 2   2013   2014   2015
 3   2013   2014   2015
 4   2013   2014   2015
 5   2013   2014   2015
 6   2013   2014   2015
 7   2013   2014   2015
 8   2013   2014   2015
 9   2013   2014   2015
10   2013   2014   2015
# ℹ 336,766 more rows

Mostrar/ocultar código

  View(df2)

Mudando o nome da coluna

Mostrar/ocultar código

dados |> 
  rename(ano = year)

# A tibble: 336,776 × 19
     ano month   day dep_time sched_dep_time dep_delay arr_time sched_arr_time
   <int> <int> <int>    <int>          <int>     <dbl>    <int>          <int>
 1  2013     1     1      517            515         2      830            819
 2  2013     1     1      533            529         4      850            830
 3  2013     1     1      542            540         2      923            850
 4  2013     1     1      544            545        -1     1004           1022
 5  2013     1     1      554            600        -6      812            837
 6  2013     1     1      554            558        -4      740            728
 7  2013     1     1      555            600        -5      913            854
 8  2013     1     1      557            600        -3      709            723
 9  2013     1     1      557            600        -3      838            846
10  2013     1     1      558            600        -2      753            745
# ℹ 336,766 more rows
# ℹ 11 more variables: arr_delay <dbl>, carrier <chr>, flight <int>,
#   tailnum <chr>, origin <chr>, dest <chr>, air_time <dbl>, distance <dbl>,
#   hour <dbl>, minute <dbl>, time_hour <dttm>

Trazer as colunas para frente

Mostrar/ocultar código

dados |> 
  relocate(time_hour, air_time)

# A tibble: 336,776 × 19
   time_hour           air_time  year month   day dep_time sched_dep_time
   <dttm>                 <dbl> <int> <int> <int>    <int>          <int>
 1 2013-01-01 05:00:00      227  2013     1     1      517            515
 2 2013-01-01 05:00:00      227  2013     1     1      533            529
 3 2013-01-01 05:00:00      160  2013     1     1      542            540
 4 2013-01-01 05:00:00      183  2013     1     1      544            545
 5 2013-01-01 06:00:00      116  2013     1     1      554            600
 6 2013-01-01 05:00:00      150  2013     1     1      554            558
 7 2013-01-01 06:00:00      158  2013     1     1      555            600
 8 2013-01-01 06:00:00       53  2013     1     1      557            600
 9 2013-01-01 06:00:00      140  2013     1     1      557            600
10 2013-01-01 06:00:00      138  2013     1     1      558            600
# ℹ 336,766 more rows
# ℹ 12 more variables: dep_delay <dbl>, arr_time <int>, sched_arr_time <int>,
#   arr_delay <dbl>, carrier <chr>, flight <int>, tailnum <chr>, origin <chr>,
#   dest <chr>, distance <dbl>, hour <dbl>, minute <dbl>

Mostrar/ocultar código

dados |> 
  relocate(year:dep_time, .after = time_hour)

# A tibble: 336,776 × 19
   sched_dep_time dep_delay arr_time sched_arr_time arr_delay carrier flight
            <int>     <dbl>    <int>          <int>     <dbl> <chr>    <int>
 1            515         2      830            819        11 UA        1545
 2            529         4      850            830        20 UA        1714
 3            540         2      923            850        33 AA        1141
 4            545        -1     1004           1022       -18 B6         725
 5            600        -6      812            837       -25 DL         461
 6            558        -4      740            728        12 UA        1696
 7            600        -5      913            854        19 B6         507
 8            600        -3      709            723       -14 EV        5708
 9            600        -3      838            846        -8 B6          79
10            600        -2      753            745         8 AA         301
# ℹ 336,766 more rows
# ℹ 12 more variables: tailnum <chr>, origin <chr>, dest <chr>, air_time <dbl>,
#   distance <dbl>, hour <dbl>, minute <dbl>, time_hour <dttm>, year <int>,
#   month <int>, day <int>, dep_time <int>

Mostrar/ocultar código

dados |> 
  relocate(starts_with("arr"), .before=dep_time)

# A tibble: 336,776 × 19
    year month   day arr_time arr_delay dep_time sched_dep_time dep_delay
   <int> <int> <int>    <int>     <dbl>    <int>          <int>     <dbl>
 1  2013     1     1      830        11      517            515         2
 2  2013     1     1      850        20      533            529         4
 3  2013     1     1      923        33      542            540         2
 4  2013     1     1     1004       -18      544            545        -1
 5  2013     1     1      812       -25      554            600        -6
 6  2013     1     1      740        12      554            558        -4
 7  2013     1     1      913        19      555            600        -5
 8  2013     1     1      709       -14      557            600        -3
 9  2013     1     1      838        -8      557            600        -3
10  2013     1     1      753         8      558            600        -2
# ℹ 336,766 more rows
# ℹ 11 more variables: sched_arr_time <int>, carrier <chr>, flight <int>,
#   tailnum <chr>, origin <chr>, dest <chr>, air_time <dbl>, distance <dbl>,
#   hour <dbl>, minute <dbl>, time_hour <dttm>

Mostrar/ocultar código

dados |> 
  relocate(contains("arr"), .before=dep_time)

# A tibble: 336,776 × 19
    year month   day arr_time sched_arr_time arr_delay carrier dep_time
   <int> <int> <int>    <int>          <int>     <dbl> <chr>      <int>
 1  2013     1     1      830            819        11 UA           517
 2  2013     1     1      850            830        20 UA           533
 3  2013     1     1      923            850        33 AA           542
 4  2013     1     1     1004           1022       -18 B6           544
 5  2013     1     1      812            837       -25 DL           554
 6  2013     1     1      740            728        12 UA           554
 7  2013     1     1      913            854        19 B6           555
 8  2013     1     1      709            723       -14 EV           557
 9  2013     1     1      838            846        -8 B6           557
10  2013     1     1      753            745         8 AA           558
# ℹ 336,766 more rows
# ℹ 11 more variables: sched_dep_time <int>, dep_delay <dbl>, flight <int>,
#   tailnum <chr>, origin <chr>, dest <chr>, air_time <dbl>, distance <dbl>,
#   hour <dbl>, minute <dbl>, time_hour <dttm>
